Single-recording sleep analysis • zeitR
…
Computing circadian rhythm variables (NPCRA)

1. Read the recording

read_acttrust() parses the raw ActTrust file and returns
a zeitr_recording with two slots: $epochs
(epoch-level tibble) and $metadata (device and subject
information from the file header).

FILE <- system.file("extdata", "input1.txt", package = "zeitR")
TZ   <- "America/Sao_Paulo"

rec <- read_acttrust(FILE, tz = TZ)
rec
#> # A tibble: 76,196 × 8
#>    datetime            activity int_temp ext_temp      ZCMn state offwrist sleep
#>    <dttm>                 <dbl>    <dbl>    <dbl>     <dbl> <dbl>    <dbl> <dbl>
#>  1 2021-05-27 11:10:15     4856     24.2     23.9   6.35e-8     0        0     0
#>  2 2021-05-27 11:11:15     4483     24.4     24.1   1.5 e+0     0        0     0
#>  3 2021-05-27 11:12:15      425     24.4     23.9   5   e-2     0        0     0
#>  4 2021-05-27 11:13:15      873     24.4     23.9   2.67e-1     0        0     0
#>  5 2021-05-27 11:14:15      413     24.4     23.8   1.67e-2     0        0     0
#>  6 2021-05-27 11:15:15      388     24.4     23.8   8.33e-2     0        0     0
#>  7 2021-05-27 11:16:15      561     24.3     23.8   1.17e-1     0        0     0
#>  8 2021-05-27 11:17:15      447     24.3     23.7   5   e-2     0        0     0
#>  9 2021-05-27 11:18:15      196     24.2     23.6   0           0        0     0
#> 10 2021-05-27 11:19:15      192     24.2     23.6   1.67e-2     0        0     0
#> # ℹ 76,186 more rows
…
